<?xml version="1.0" encoding="UTF-8" standalone="no"?>
<!-- Created with Inkscape (http://www.inkscape.org/) -->

<svg
   xmlns:dc="http://purl.org/dc/elements/1.1/"
   xmlns:cc="http://creativecommons.org/ns#"
   xmlns:rdf="http://www.w3.org/1999/02/22-rdf-syntax-ns#"
   xmlns:svg="http://www.w3.org/2000/svg"
   xmlns="http://www.w3.org/2000/svg"
   xmlns:sodipodi="http://sodipodi.sourceforge.net/DTD/sodipodi-0.dtd"
   xmlns:inkscape="http://www.inkscape.org/namespaces/inkscape"
   width="100"
   height="100"
   viewBox="0 0 26.458333 26.458334"
   version="1.1"
   id="svg8"
   inkscape:version="0.92.4 (f8dce91, 2019-08-02)"
   sodipodi:docname="favicon.svg"
   inkscape:export-filename="/home/xdl/dev/ipponoke/assets/favicon.png"
   inkscape:export-xdpi="96"
   inkscape:export-ydpi="96">
  <defs
     id="defs2" />
  <sodipodi:namedview
     id="base"
     pagecolor="#ffffff"
     bordercolor="#666666"
     borderopacity="1.0"
     inkscape:pageopacity="0.0"
     inkscape:pageshadow="2"
     inkscape:zoom="1.4"
     inkscape:cx="-28.076045"
     inkscape:cy="147.67396"
     inkscape:document-units="px"
     inkscape:current-layer="layer1"
     showgrid="false"
     units="px"
     inkscape:window-width="1920"
     inkscape:window-height="1025"
     inkscape:window-x="0"
     inkscape:window-y="27"
     inkscape:window-maximized="1"
     inkscape:snap-global="true"
     inkscape:object-paths="true"
     inkscape:snap-bbox="false"
     inkscape:snap-intersection-paths="true"
     inkscape:snap-smooth-nodes="false"
     inkscape:snap-object-midpoints="true"
     inkscape:object-nodes="true"
     inkscape:snap-nodes="true"
     inkscape:snap-midpoints="true" />
  <metadata
     id="metadata5">
    <rdf:RDF>
      <cc:Work
         rdf:about="">
        <dc:format>image/svg+xml</dc:format>
        <dc:type
           rdf:resource="http://purl.org/dc/dcmitype/StillImage" />
        <dc:title></dc:title>
      </cc:Work>
    </rdf:RDF>
  </metadata>
  <g
     inkscape:label="Layer 1"
     inkscape:groupmode="layer"
     id="layer1"
     transform="translate(0,-270.54166)">
    <path
       style="display:none;fill:none;stroke:#000000;stroke-width:0.26458332px;stroke-linecap:butt;stroke-linejoin:miter;stroke-opacity:1"
       d="M -5.5751469,283.63854 H 33.356399"
       id="path4592"
       inkscape:connector-curvature="0" />
    <path
       style="display:none;fill:none;stroke:#000000;stroke-width:0.26458332px;stroke-linecap:butt;stroke-linejoin:miter;stroke-opacity:1"
       d="m 13.361458,260.90327 v 43.37277"
       id="path4594"
       inkscape:connector-curvature="0" />
    <g
       id="g8459"
       transform="translate(0,0.51478427)">
      <circle
         r="10.070527"
         style="fill:none;stroke:#ff9955;stroke-width:2.01410532;stroke-miterlimit:4;stroke-dasharray:none;stroke-opacity:1"
         cy="283.77081"
         cx="13.229167"
         id="path68" />
      <circle
         r="2.9399648"
         cy="274.07825"
         cx="13.361458"
         id="path4586"
         style="fill:#ff6600;fill-opacity:1;stroke:none;stroke-width:2.64583325;stroke-miterlimit:4;stroke-dasharray:none;stroke-opacity:1" />
      <circle
         r="2.9399648"
         cy="288.70575"
         cx="4.4506669"
         id="circle4590"
         style="fill:#ff6600;fill-opacity:1;stroke:none;stroke-width:2.64583325;stroke-miterlimit:4;stroke-dasharray:none;stroke-opacity:1" />
      <circle
         r="2.9399648"
         cy="292.43384"
         cx="18.364111"
         id="circle4596"
         style="fill:#ff6600;fill-opacity:1;stroke:none;stroke-width:2.64583325;stroke-miterlimit:4;stroke-dasharray:none;stroke-opacity:1" />
    </g>
    <path
       sodipodi:type="star"
       id="path13"
       sodipodi:sides="12"
       sodipodi:cx="13.229167"
       sodipodi:cy="283.77081"
       sodipodi:r1="14.100209"
       sodipodi:r2="1.4100209"
       sodipodi:arg1="1.0471976"
       sodipodi:arg2="1.3089969"
       inkscape:flatsided="false"
       inkscape:rounded="0"
       inkscape:randomized="0"
       d="m 20.279271,295.98195 -6.685164,-10.84916 -0.364941,12.73823 -0.364939,-12.73823 -6.6851652,10.84916 6.0530702,-11.2141 -11.2141048,6.05307 10.8491638,-6.68517 -12.73823325,-0.36494 12.73823325,-0.36494 -10.8491631,-6.68516 11.2141041,6.05307 -6.053069,-11.21411 6.685164,10.84917 0.364941,-12.73824 0.364939,12.73824 6.685165,-10.84917 -6.05307,11.21411 11.214105,-6.05307 -10.849164,6.68516 12.738233,0.36494 -12.738233,0.36494 10.849163,6.68517 -11.214104,-6.05307 z"
       style="display:none;opacity:0.48399999;stroke-width:0.26458332" />
  </g>
</svg>
